<?xml version="1.0" encoding="UTF-8" standalone="no"?>
<!-- Created with Inkscape (http://www.inkscape.org/) -->

<svg
   xmlns:dc="http://purl.org/dc/elements/1.1/"
   xmlns:cc="http://creativecommons.org/ns#"
   xmlns:rdf="http://www.w3.org/1999/02/22-rdf-syntax-ns#"
   xmlns:svg="http://www.w3.org/2000/svg"
   xmlns="http://www.w3.org/2000/svg"
   xmlns:sodipodi="http://sodipodi.sourceforge.net/DTD/sodipodi-0.dtd"
   xmlns:inkscape="http://www.inkscape.org/namespaces/inkscape"
   width="648.54535"
   height="249.0927"
   viewBox="0 0 171.59429 65.905779"
   version="1.1"
   id="svg8"
   inkscape:version="0.92.4 5da689c313, 2019-01-14"
   sodipodi:docname="lvm.svg">
  <defs
     id="defs2" />
  <sodipodi:namedview
     id="base"
     pagecolor="#ffffff"
     bordercolor="#666666"
     borderopacity="1.0"
     inkscape:pageopacity="0.0"
     inkscape:pageshadow="2"
     inkscape:zoom="2.8833759"
     inkscape:cx="320.10306"
     inkscape:cy="92.078514"
     inkscape:document-units="mm"
     inkscape:current-layer="g863"
     showgrid="false"
     inkscape:window-width="3840"
     inkscape:window-height="2087"
     inkscape:window-x="0"
     inkscape:window-y="0"
     inkscape:window-maximized="1"
     fit-margin-top="5"
     fit-margin-left="5"
     fit-margin-right="5"
     fit-margin-bottom="5"
     units="px" />
  <metadata
     id="metadata5">
    <rdf:RDF>
      <cc:Work
         rdf:about="">
        <dc:format>image/svg+xml</dc:format>
        <dc:type
           rdf:resource="http://purl.org/dc/dcmitype/StillImage" />
        <dc:title />
      </cc:Work>
    </rdf:RDF>
  </metadata>
  <g
     inkscape:label="Layer 1"
     inkscape:groupmode="layer"
     id="layer1"
     transform="translate(-3.2684579,-30.626881)">
    <rect
       style="opacity:1;fill:none;fill-opacity:1;stroke:#999999;stroke-width:0.70876873;stroke-linecap:round;stroke-linejoin:miter;stroke-miterlimit:4;stroke-dasharray:none;stroke-opacity:1;paint-order:normal"
       id="rect4518"
       width="37.858051"
       height="6.2866931"
       x="56.318451"
       y="88.568665"
       ry="1.7845404" />
    <text
       xml:space="preserve"
       style="font-style:normal;font-variant:normal;font-weight:normal;font-stretch:normal;font-size:11.51660252px;line-height:1.25;font-family:Arial;-inkscape-font-specification:Arial;letter-spacing:0px;word-spacing:0px;fill:#000000;fill-opacity:1;stroke:none;stroke-width:0.30848041"
       x="23.232393"
       y="92.855255"
       id="text4522"><tspan
         sodipodi:role="line"
         id="tspan4520"
         x="23.232393"
         y="92.855255"
         style="font-size:4.52437973px;stroke-width:0.30848041">Physical drive</tspan></text>
    <rect
       style="opacity:1;fill:#f1fafe;fill-opacity:1;stroke:#0b72a1;stroke-width:0.60627335;stroke-linecap:round;stroke-linejoin:miter;stroke-miterlimit:4;stroke-dasharray:none;stroke-opacity:1;paint-order:normal"
       id="rect4865"
       width="168.34218"
       height="31.84144"
       x="4.8945112"
       y="42.896347"
       ry="1.302207" />
    <text
       xml:space="preserve"
       style="font-style:normal;font-variant:normal;font-weight:normal;font-stretch:normal;font-size:11.51660252px;line-height:1.25;font-family:Arial;-inkscape-font-specification:Arial;letter-spacing:0px;word-spacing:0px;fill:#000000;fill-opacity:1;stroke:none;stroke-width:0.30848041"
       x="34.669266"
       y="83.779419"
       id="text4522-7-6"><tspan
         sodipodi:role="line"
         id="tspan4520-5-2"
         x="34.669266"
         y="83.779419"
         style="font-size:4.52437973px;stroke-width:0.30848041">Partition</tspan></text>
    <text
       xml:space="preserve"
       style="font-style:normal;font-variant:normal;font-weight:normal;font-stretch:normal;font-size:11.51660252px;line-height:1.25;font-family:Arial;-inkscape-font-specification:Arial;letter-spacing:0px;word-spacing:0px;fill:#000000;fill-opacity:1;stroke:none;stroke-width:0.30848041"
       x="12.391995"
       y="59.987926"
       id="text4522-7-6-2"><tspan
         sodipodi:role="line"
         id="tspan4520-5-2-7"
         x="12.391995"
         y="59.987926"
         style="font-size:4.52437973px;stroke-width:0.30848041">Volume group (VG)</tspan></text>
    <text
       xml:space="preserve"
       style="font-style:normal;font-variant:normal;font-weight:normal;font-stretch:normal;font-size:11.51660252px;line-height:1.25;font-family:Arial;-inkscape-font-specification:Arial;letter-spacing:0px;word-spacing:0px;fill:#000000;fill-opacity:1;stroke:none;stroke-width:0.30848041"
       x="11.470774"
       y="50.462521"
       id="text4522-7-6-0"><tspan
         sodipodi:role="line"
         id="tspan4520-5-2-9"
         x="11.470774"
         y="50.462521"
         style="font-size:4.52437973px;stroke-width:0.30848041">Logical volume (LV)</tspan></text>
    <text
       xml:space="preserve"
       style="font-style:normal;font-variant:normal;font-weight:normal;font-stretch:normal;font-size:11.51660252px;line-height:1.25;font-family:Arial;-inkscape-font-specification:Arial;letter-spacing:0px;word-spacing:0px;fill:#000000;fill-opacity:1;stroke:none;stroke-width:0.30848041"
       x="28.370922"
       y="36.590771"
       id="text4522-7-6-0-0"><tspan
         sodipodi:role="line"
         id="tspan4520-5-2-9-62"
         x="28.370922"
         y="36.590771"
         style="font-size:4.52437973px;stroke-width:0.30848041">File system</tspan></text>
    <text
       xml:space="preserve"
       style="font-style:normal;font-variant:normal;font-weight:normal;font-stretch:normal;font-size:11.51660252px;line-height:1.25;font-family:Arial;-inkscape-font-specification:Arial;letter-spacing:0px;word-spacing:0px;fill:#000000;fill-opacity:1;stroke:none;stroke-width:0.30848041"
       x="69.097946"
       y="92.889694"
       id="text4522-79"><tspan
         sodipodi:role="line"
         id="tspan4520-2"
         x="69.097946"
         y="92.889694"
         style="font-size:3.29045796px;stroke-width:0.30848041">/dev/sda</tspan></text>
    <rect
       style="opacity:1;fill:none;fill-opacity:1;stroke:#999999;stroke-width:0.70919889;stroke-linecap:round;stroke-linejoin:miter;stroke-miterlimit:4;stroke-dasharray:none;stroke-opacity:1;paint-order:normal"
       id="rect4518-0"
       width="72.341331"
       height="6.286263"
       x="96.904037"
       y="88.568878"
       ry="1.7844182" />
    <text
       xml:space="preserve"
       style="font-style:normal;font-variant:normal;font-weight:normal;font-stretch:normal;font-size:11.51660252px;line-height:1.25;font-family:Arial;-inkscape-font-specification:Arial;letter-spacing:0px;word-spacing:0px;fill:#000000;fill-opacity:1;stroke:none;stroke-width:0.30848041"
       x="126.92277"
       y="92.889694"
       id="text4522-79-2"><tspan
         sodipodi:role="line"
         id="tspan4520-2-3"
         x="126.92277"
         y="92.889694"
         style="font-size:3.29045796px;stroke-width:0.30848041">/dev/sdb</tspan></text>
    <text
       xml:space="preserve"
       style="font-style:normal;font-variant:normal;font-weight:normal;font-stretch:normal;font-size:11.51660252px;line-height:1.25;font-family:Arial;-inkscape-font-specification:Arial;letter-spacing:0px;word-spacing:0px;fill:#000000;fill-opacity:1;stroke:none;stroke-width:0.30848041"
       x="68.415115"
       y="83.364296"
       id="text4522-79-5"><tspan
         sodipodi:role="line"
         id="tspan4520-2-9"
         x="68.415115"
         y="83.364296"
         style="font-size:3.29045796px;stroke-width:0.30848041">/dev/sda1</tspan></text>
    <text
       xml:space="preserve"
       style="font-style:normal;font-variant:normal;font-weight:normal;font-stretch:normal;font-size:11.51660252px;line-height:1.25;font-family:Arial;-inkscape-font-specification:Arial;letter-spacing:0px;word-spacing:0px;fill:#000000;fill-opacity:1;stroke:none;stroke-width:0.30848041"
       x="126.24235"
       y="83.364296"
       id="text4522-79-2-2"><tspan
         sodipodi:role="line"
         id="tspan4520-2-3-8"
         x="126.24235"
         y="83.364296"
         style="font-size:3.29045796px;stroke-width:0.30848041">/dev/sdb1</tspan></text>
    <text
       xml:space="preserve"
       style="font-style:normal;font-variant:normal;font-weight:normal;font-stretch:normal;font-size:11.51660252px;line-height:1.25;font-family:Arial;-inkscape-font-specification:Arial;letter-spacing:0px;word-spacing:0px;fill:#000000;fill-opacity:1;stroke:none;stroke-width:0.30848041"
       x="68.415115"
       y="69.520164"
       id="text4522-79-5-7"><tspan
         sodipodi:role="line"
         id="tspan4520-2-9-3"
         x="68.415115"
         y="69.520164"
         style="font-size:3.29045796px;stroke-width:0.30848041">/dev/sda1</tspan></text>
    <text
       xml:space="preserve"
       style="font-style:normal;font-variant:normal;font-weight:normal;font-stretch:normal;font-size:11.51660252px;line-height:1.25;font-family:Arial;-inkscape-font-specification:Arial;letter-spacing:0px;word-spacing:0px;fill:#000000;fill-opacity:1;stroke:none;stroke-width:0.30848041"
       x="126.24235"
       y="69.520164"
       id="text4522-79-2-2-1"><tspan
         sodipodi:role="line"
         id="tspan4520-2-3-8-2"
         x="126.24235"
         y="69.520164"
         style="font-size:3.29045796px;stroke-width:0.30848041">/dev/sdb1</tspan></text>
    <rect
       style="opacity:1;fill:none;fill-opacity:1;stroke:#aa4400;stroke-width:0.70936984;stroke-linecap:round;stroke-linejoin:miter;stroke-miterlimit:4;stroke-dasharray:none;stroke-opacity:1;paint-order:normal"
       id="rect4518-0-2-6-9"
       width="112.91894"
       height="6.2860923"
       x="56.318748"
       y="55.674023"
       ry="1.7843697" />
    <text
       xml:space="preserve"
       style="font-style:normal;font-variant:normal;font-weight:normal;font-stretch:normal;font-size:11.51660252px;line-height:1.25;font-family:Arial;-inkscape-font-specification:Arial;letter-spacing:0px;word-spacing:0px;fill:#000000;fill-opacity:1;stroke:none;stroke-width:0.30848041"
       x="104.8959"
       y="59.687881"
       id="text4522-79-2-2-1-3"><tspan
         sodipodi:role="line"
         id="tspan4520-2-3-8-2-1"
         x="104.8959"
         y="59.687881"
         style="font-style:italic;font-variant:normal;font-weight:normal;font-stretch:normal;font-size:3.29045796px;font-family:Arial;-inkscape-font-specification:'Arial Italic';stroke-width:0.30848041">VolGroup1</tspan></text>
    <text
       xml:space="preserve"
       style="font-style:normal;font-variant:normal;font-weight:bold;font-stretch:normal;font-size:11.51660252px;line-height:1.25;font-family:Arial;-inkscape-font-specification:'Arial Bold';letter-spacing:0px;word-spacing:0px;fill:#000000;fill-opacity:1;stroke:none;stroke-width:0.30848041"
       x="155.35349"
       y="51.453926"
       id="text4522-7-6-0-0-0"><tspan
         sodipodi:role="line"
         id="tspan4520-5-2-9-62-3"
         x="155.35349"
         y="51.453926"
         style="font-style:normal;font-variant:normal;font-weight:bold;font-stretch:normal;font-size:5.75830173px;font-family:Arial;-inkscape-font-specification:'Arial Bold';stroke-width:0.30848041">LVM</tspan></text>
    <g
       id="g863"
       transform="matrix(1.1659103,0,0,1.1659103,-0.7617565,-6.6360376)">
      <text
         id="text4522-79-5-7-4"
         y="48.716022"
         x="59.252411"
         style="font-style:normal;font-variant:normal;font-weight:normal;font-stretch:normal;font-size:9.8777771px;line-height:1.25;font-family:Arial;-inkscape-font-specification:Arial;letter-spacing:0px;word-spacing:0px;fill:#000000;fill-opacity:1;stroke:none;stroke-width:0.26458332"
         xml:space="preserve"><tspan
           style="font-size:2.82222223px;stroke-width:0.26458332"
           y="48.716022"
           x="59.252411"
           id="tspan4520-2-9-3-7"
           sodipodi:role="line">/dev/mapper/VolGroup1-VolData</tspan></text>
      <rect
         ry="1.5304953"
         y="45.273262"
         x="48.957809"
         height="5.391727"
         width="61.102146"
         id="rect4518-06"
         style="opacity:1;fill:none;fill-opacity:1;stroke:#447821;stroke-width:0.60827279;stroke-linecap:round;stroke-linejoin:miter;stroke-miterlimit:4;stroke-dasharray:none;stroke-opacity:1;paint-order:normal" />
    </g>
    <rect
       style="opacity:1;fill:none;fill-opacity:1;stroke:#666666;stroke-width:0.70919889;stroke-linecap:round;stroke-linejoin:miter;stroke-miterlimit:4;stroke-dasharray:none;stroke-opacity:1;paint-order:normal"
       id="rect4518-0-3"
       width="72.341339"
       height="6.286263"
       x="96.904037"
       y="79.04348"
       ry="1.7844182" />
    <text
       xml:space="preserve"
       style="font-style:normal;font-variant:normal;font-weight:normal;font-stretch:normal;font-size:11.51660252px;line-height:1.25;font-family:Arial;-inkscape-font-specification:Arial;letter-spacing:0px;word-spacing:0px;fill:#000000;fill-opacity:1;stroke:none;stroke-width:0.30848041"
       x="8.1238785"
       y="69.513329"
       id="text4522-7"><tspan
         sodipodi:role="line"
         id="tspan4520-5"
         x="8.1238785"
         y="69.513329"
         style="font-size:4.52437973px;stroke-width:0.30848041">Physical volume (PV)</tspan></text>
    <rect
       style="opacity:1;fill:none;fill-opacity:1;stroke:#666666;stroke-width:0.70919889;stroke-linecap:round;stroke-linejoin:miter;stroke-miterlimit:4;stroke-dasharray:none;stroke-opacity:1;paint-order:normal"
       id="rect4518-0-2"
       width="72.341339"
       height="6.286263"
       x="96.904037"
       y="65.199341"
       ry="1.7844182" />
    <rect
       style="opacity:1;fill:none;fill-opacity:1;stroke:#666666;stroke-width:0.70876873;stroke-linecap:round;stroke-linejoin:miter;stroke-miterlimit:4;stroke-dasharray:none;stroke-opacity:1;paint-order:normal"
       id="rect4518-5"
       width="37.858051"
       height="6.2866931"
       x="56.318451"
       y="79.043266"
       ry="1.7845402" />
    <rect
       style="opacity:1;fill:none;fill-opacity:1;stroke:#666666;stroke-width:0.70876873;stroke-linecap:round;stroke-linejoin:miter;stroke-miterlimit:4;stroke-dasharray:none;stroke-opacity:1;paint-order:normal"
       id="rect4518-54"
       width="37.858051"
       height="6.2866931"
       x="56.318451"
       y="65.199127"
       ry="1.7845402" />
    <rect
       style="opacity:1;fill:none;fill-opacity:1;stroke:#447821;stroke-width:0.70736432;stroke-linecap:round;stroke-linejoin:miter;stroke-miterlimit:4;stroke-dasharray:0.70736435, 1.41472869;stroke-dashoffset:0;stroke-opacity:1;paint-order:normal"
       id="rect4518-06-7"
       width="14.613253"
       height="6.2880974"
       x="130.12813"
       y="46.147614"
       ry="1.7849389" />
    <rect
       style="opacity:1;fill:none;fill-opacity:1;stroke:#666666;stroke-width:0.70919156;stroke-linecap:round;stroke-linejoin:miter;stroke-miterlimit:4;stroke-dasharray:none;stroke-opacity:1;paint-order:normal"
       id="rect4518-06-6"
       width="71.239624"
       height="6.2862701"
       x="56.318661"
       y="32.304394"
       ry="1.7844203" />
  </g>
</svg>
